\relax 
\providecommand\HyperFirstAtBeginDocument{\AtBeginDocument}
\HyperFirstAtBeginDocument{\ifx\hyper@anchor\@undefined
\global\let\oldcontentsline\contentsline
\gdef\contentsline#1#2#3#4{\oldcontentsline{#1}{#2}{#3}}
\global\let\oldnewlabel\newlabel
\gdef\newlabel#1#2{\newlabelxx{#1}#2}
\gdef\newlabelxx#1#2#3#4#5#6{\oldnewlabel{#1}{{#2}{#3}}}
\AtEndDocument{\ifx\hyper@anchor\@undefined
\let\contentsline\oldcontentsline
\let\newlabel\oldnewlabel
\fi}
\fi}
\global\let\hyper@last\relax 
\gdef\HyperFirstAtBeginDocument#1{#1}
\providecommand\HyField@AuxAddToFields[1]{}
\citation{beijinghightwitter}
\citation{pm2point5inscotland}
\@writefile{toc}{\contentsline {section}{\numberline {1}Introduction}{1}{section.1}}
\newlabel{intro}{{1}{1}{Introduction\relax }{section.1}{}}
\@writefile{lof}{\contentsline {figure}{\numberline {1}{\ignorespaces Example of sensors moving around with a static access point}}{1}{figure.1}}
\newlabel{fig:busmodel}{{1}{1}{Example of sensors moving around with a static access point\relax }{figure.1}{}}
\@writefile{toc}{\contentsline {section}{\numberline {2}Preliminary Work}{2}{section.2}}
\newlabel{preliminary}{{2}{2}{Preliminary Work\relax }{section.2}{}}
\@writefile{toc}{\contentsline {subsection}{\numberline {2.1}Challenge Identification}{2}{subsection.2.1}}
\newlabel{challenges}{{2.1}{2}{Challenge Identification\relax }{subsection.2.1}{}}
\citation{opensensezurich}
\@writefile{lof}{\contentsline {figure}{\numberline {2}{\ignorespaces Example of pollutant build up in stationary situations. In this example the bus starts where the highest concentration of pollutants is found, denoted by the red, and moves in a northern direction initially.}}{3}{figure.2}}
\newlabel{fig:stationarypollutantbuildup}{{2}{3}{Example of pollutant build up in stationary situations. In this example the bus starts where the highest concentration of pollutants is found, denoted by the red, and moves in a northern direction initially}{figure.2}{}}
\citation{bcaq}
\citation{epapollutants}
\citation{airqualityobjectives}
\citation{cleanairnavigation}
\citation{naaqs}
\citation{whoguidelines}
\citation{meaningsofenvironmentalterms}
\citation{waspmote}
\citation{arduinoproj1}
\citation{arduinoproj2}
\citation{arduinoproj3}
\@writefile{toc}{\contentsline {subsection}{\numberline {2.2}Air Quality Definition}{4}{subsection.2.2}}
\newlabel{airquality}{{2.2}{4}{Air Quality Definition\relax }{subsection.2.2}{}}
\citation{ardupi}
\citation{envisensor}
\@writefile{toc}{\contentsline {subsection}{\numberline {2.3}Platform Creation}{5}{subsection.2.3}}
\newlabel{platformcreation}{{2.3}{5}{Platform Creation\relax }{subsection.2.3}{}}
\@writefile{toc}{\contentsline {subsubsection}{\numberline {2.3.1}Sensor}{5}{subsubsection.2.3.1}}
\newlabel{sensor}{{2.3.1}{5}{Sensor\relax }{subsubsection.2.3.1}{}}
\@writefile{toc}{\contentsline {subsubsection}{\numberline {2.3.2}Data Collection Framework}{5}{subsubsection.2.3.2}}
\newlabel{datacollectionframework}{{2.3.2}{5}{Data Collection Framework\relax }{subsubsection.2.3.2}{}}
\citation{ontheflycalibration}
\citation{collaborativeinplacecalibration}
\citation{blindcalibration}
\citation{samplingtheoremorigins}
\citation{ontheflycalibration}
\citation{ontheflycalibration}
\citation{calibree}
\@writefile{toc}{\contentsline {section}{\numberline {3}Calibration}{6}{section.3}}
\newlabel{calibration}{{3}{6}{Calibration\relax }{section.3}{}}
\@writefile{toc}{\contentsline {section}{\numberline {4}Data Collection}{7}{section.4}}
\newlabel{datacollection}{{4}{7}{Data Collection\relax }{section.4}{}}
\@writefile{toc}{\contentsline {subsection}{\numberline {4.1}Opportunistic Uploading}{7}{subsection.4.1}}
\newlabel{opportunisticuploading}{{4.1}{7}{Opportunistic Uploading\relax }{subsection.4.1}{}}
\@writefile{lof}{\contentsline {figure}{\numberline {3}{\ignorespaces Diagram showing reduced latency. The black arrows indicated the direction of travel of the sensors. $\theta $ is the intersection point of the two routes. It can be seen that sensor A has a much further distance to travel to an access point than sensor B does.}}{8}{figure.3}}
\newlabel{fig:opportunisticdiagram}{{3}{8}{Diagram showing reduced latency. The black arrows indicated the direction of travel of the sensors. $\theta $ is the intersection point of the two routes. It can be seen that sensor A has a much further distance to travel to an access point than sensor B does}{figure.3}{}}
\citation{practicalguidestatisticalmapping}
\@writefile{toc}{\contentsline {section}{\numberline {5}Heatmaps and Geostatistical Mapping}{9}{section.5}}
\newlabel{geostatistics}{{5}{9}{Heatmaps and Geostatistical Mapping\relax }{section.5}{}}
\citation{mappingairpollutionusinggis}
\@writefile{toc}{\contentsline {subsection}{\numberline {5.1}Heat maps}{10}{subsection.5.1}}
\newlabel{heatmaps}{{5.1}{10}{Heat maps\relax }{subsection.5.1}{}}
\@writefile{toc}{\contentsline {subsubsection}{\numberline {5.1.1}Definition}{10}{subsubsection.5.1.1}}
\newlabel{heatmapdefinition}{{5.1.1}{10}{Definition\relax }{subsubsection.5.1.1}{}}
\@writefile{lof}{\contentsline {figure}{\numberline {4}{\ignorespaces Example heat map generated from mouse movements}}{10}{figure.4}}
\newlabel{fig:mousemoveheatmap}{{4}{10}{Example heat map generated from mouse movements\relax }{figure.4}{}}
\@writefile{toc}{\contentsline {paragraph}{Calculations and Colour Progression}{10}{section*.2}}
\@writefile{toc}{\contentsline {paragraph}{Representation Matrix}{11}{section*.3}}
\@writefile{lof}{\contentsline {figure}{\numberline {5}{\ignorespaces Heat Map Generation Example}}{11}{figure.5}}
\newlabel{fig:matrixheatmapexample}{{5}{11}{Heat Map Generation Example\relax }{figure.5}{}}
\@writefile{toc}{\contentsline {subsubsection}{\numberline {5.1.2}Applications in Air Quality Measurement}{11}{subsubsection.5.1.2}}
\newlabel{applicationsinaqmeasurement}{{5.1.2}{11}{Applications in Air Quality Measurement\relax }{subsubsection.5.1.2}{}}
\@writefile{lof}{\contentsline {figure}{\numberline {6}{\ignorespaces Particulate matter heat map in Zurich. Source: \url  {www.stadt-zuerich.ch}}}{12}{figure.6}}
\newlabel{fig:pmheatmapzurich}{{6}{12}{Particulate matter heat map in Zurich. Source: \url {www.stadt-zuerich.ch}\relax }{figure.6}{}}
\@writefile{toc}{\contentsline {subsection}{\numberline {5.2}Mechanical Models}{12}{subsection.5.2}}
\newlabel{mechanicalmodels}{{5.2}{12}{Mechanical Models\relax }{subsection.5.2}{}}
\@writefile{toc}{\contentsline {subsubsection}{\numberline {5.2.1}Inverse Distance Weighting}{12}{subsubsection.5.2.1}}
\newlabel{inverseweight}{{5.2.1}{12}{Inverse Distance Weighting\relax }{subsubsection.5.2.1}{}}
\@writefile{lof}{\contentsline {figure}{\numberline {7}{\ignorespaces Example of IDW. It is clear that it is not a ``perfect'' solution. Source: \url  {http://esri.com}}}{12}{figure.7}}
\newlabel{fig:idw}{{7}{12}{Example of IDW. It is clear that it is not a ``perfect'' solution. Source: \url {http://esri.com}\relax }{figure.7}{}}
\citation{geostatisticalradiomapping}
\citation{ordinarykriging}
\@writefile{toc}{\contentsline {subsubsection}{\numberline {5.2.2}Regression on Coordinates}{13}{subsubsection.5.2.2}}
\newlabel{regressiononcoordinates}{{5.2.2}{13}{Regression on Coordinates\relax }{subsubsection.5.2.2}{}}
\@writefile{toc}{\contentsline {subsection}{\numberline {5.3}Statistical Models}{13}{subsection.5.3}}
\newlabel{statisticalmodels}{{5.3}{13}{Statistical Models\relax }{subsection.5.3}{}}
\@writefile{toc}{\contentsline {subsubsection}{\numberline {5.3.1}Kriging}{13}{subsubsection.5.3.1}}
\citation{simplekriging}
\citation{universalkriging}
\citation{regressionkriging}
\@writefile{lof}{\contentsline {figure}{\numberline {8}{\ignorespaces Example experimental and model variograms}}{14}{figure.8}}
\newlabel{fig:ordinarykrigingexample}{{8}{14}{Example experimental and model variograms\relax }{figure.8}{}}
\@writefile{toc}{\contentsline {subsection}{\numberline {5.4}Comparison}{14}{subsection.5.4}}
\newlabel{interpolationcomparison}{{5.4}{14}{Comparison\relax }{subsection.5.4}{}}
\citation{arcgis}
\@writefile{toc}{\contentsline {subsection}{\numberline {5.5}Alternative Methods}{15}{subsection.5.5}}
\newlabel{interpolationalternatives}{{5.5}{15}{Alternative Methods\relax }{subsection.5.5}{}}
\@writefile{toc}{\contentsline {subsubsection}{\numberline {5.5.1}Compressive Sampling}{15}{subsubsection.5.5.1}}
\newlabel{compressivesampling}{{5.5.1}{15}{Compressive Sampling\relax }{subsubsection.5.5.1}{}}
\@writefile{toc}{\contentsline {section}{\numberline {6}Workplan}{15}{section.6}}
\newlabel{workplan}{{6}{15}{Workplan\relax }{section.6}{}}
\@writefile{toc}{\contentsline {subsection}{\numberline {6.1}MPP Workplan Differences}{15}{subsection.6.1}}
\@writefile{toc}{\contentsline {subsection}{\numberline {6.2}Expert Advice}{16}{subsection.6.2}}
\newlabel{expertadvie}{{6.2}{16}{Expert Advice\relax }{subsection.6.2}{}}
\@writefile{toc}{\contentsline {subsection}{\numberline {6.3}Timetable}{16}{subsection.6.3}}
\newlabel{timetable}{{6.3}{16}{Timetable\relax }{subsection.6.3}{}}
\@writefile{lof}{\contentsline {figure}{\numberline {9}{\ignorespaces Gantt Chart of expected work schedule}}{17}{figure.9}}
\newlabel{fig:timetable}{{9}{17}{Gantt Chart of expected work schedule\relax }{figure.9}{}}
\citation{intlelectrochemicalsensor}
\@writefile{toc}{\contentsline {section}{Appendices}{18}{section*.4}}
\@writefile{toc}{\contentsline {section}{\numberline {A}Air Quality Sensors}{18}{Appendix.1.A}}
\newlabel{airqualitysensors}{{A}{18}{Air Quality Sensors\relax }{Appendix.1.A}{}}
\@writefile{toc}{\contentsline {paragraph}{Electrochemical Sensors}{18}{section*.5}}
\@writefile{toc}{\contentsline {section}{\numberline {B}Colour Progression Algorithm}{19}{Appendix.1.B}}
\bibstyle{unsrt}
\bibdata{references}
\bibcite{beijinghightwitter}{1}
\bibcite{pm2point5inscotland}{2}
\bibcite{opensensezurich}{3}
\bibcite{bcaq}{4}
\bibcite{epapollutants}{5}
\bibcite{airqualityobjectives}{6}
\bibcite{cleanairnavigation}{7}
\bibcite{naaqs}{8}
\bibcite{whoguidelines}{9}
\bibcite{meaningsofenvironmentalterms}{10}
\bibcite{waspmote}{11}
\bibcite{arduinoproj1}{12}
\bibcite{arduinoproj2}{13}
\bibcite{arduinoproj3}{14}
\bibcite{ardupi}{15}
\@writefile{toc}{\contentsline {section}{References}{20}{Appendix.1.B}}
\bibcite{envisensor}{16}
\bibcite{ontheflycalibration}{17}
\bibcite{collaborativeinplacecalibration}{18}
\bibcite{blindcalibration}{19}
\bibcite{samplingtheoremorigins}{20}
\bibcite{calibree}{21}
\bibcite{practicalguidestatisticalmapping}{22}
\bibcite{mappingairpollutionusinggis}{23}
\bibcite{geostatisticalradiomapping}{24}
\bibcite{ordinarykriging}{25}
\bibcite{simplekriging}{26}
\bibcite{universalkriging}{27}
\bibcite{regressionkriging}{28}
\bibcite{arcgis}{29}
\bibcite{intlelectrochemicalsensor}{30}
